module1-02-R
…
Parsed with column specification:
cols(
  subject_id = col_double(),
  hadm_id = col_double(),
  stay_id = col_double(),
  first_careunit = col_character(),
  last_careunit = col_character(),
  intime = col_datetime(format = ""),
  outtime = col_datetime(format = ""),
  los = col_double()
)

# A tibble: 76,540 x 8
   subject_id  hadm_id  stay_id first_careunit          
        <dbl>    <dbl>    <dbl> <chr>                   
 1   17867402 24528534 31793211 Trauma SICU (TSICU)     
 2   14435996 28960964 31983544 Trauma SICU (TSICU)     
 3   17609946 27385897 33183475 Trauma SICU (TSICU)     
 4   18966770 23483021 34131444 Trauma SICU (TSICU)     
 5   12776735 20817525 34547665 Neuro Stepdown          
 6   10215159 24283593 34569476 Trauma SICU (TSICU)     
 7   14489052 26516390 35056286 Trauma SICU (TSICU)     
 8   15914763 28906020 36909804 Trauma SICU (TSICU)     
 9   16256226 20013290 39289362 Neuro Stepdown          
10   19194449 21641999 39387567 Coronary Care Unit (CCU)
   last_careunit            intime              outtime               los
   <chr>                    <dttm>              <dttm>              <dbl>
 1 Trauma SICU (TSICU)      2154-03-03 04:11:00 2154-03-04 18:16:56 1.59 
 2 Trauma SICU (TSICU)      2150-06-19 17:57:00 2150-06-22 18:33:54 3.03 
 3 Trauma SICU (TSICU)      2138-02-05 18:54:00 2138-02-15 12:42:05 9.74 
 4 Trauma SICU (TSICU)      2123-10-25 10:35:00 2123-10-25 18:59:47 0.351
 5 Neuro Stepdown           2200-07-12 00:33:00 2200-07-13 16:44:40 1.67 
 6 Trauma SICU (TSICU)      2124-09-20 15:05:29 2124-09-21 22:06:58 1.29 
 7 Trauma SICU (TSICU)      2118-10-26 10:33:56 2118-10-26 20:28:10 0.413
 8 Trauma SICU (TSICU)      2176-12-14 12:00:00 2176-12-17 11:47:01 2.99 
 9 Neuro Stepdown           2150-12-20 16:09:08 2150-12-21 14:58:40 0.951
10 Coronary Care Unit (CCU) 2123-11-12 02:53:35 2123-11-12 13:52:03 0.457
#  with 76,530 more rows
…
  dischtime = col_datetime(format = ""),
  deathtime = col_datetime(format = ""),
  admission_type = col_character(),
  admission_location = col_character(),
  discharge_location = col_character(),
  insurance = col_character(),
  language = col_character(),
  marital_status = col_character(),
  ethnicity = col_character(),
  edregtime = col_datetime(format = ""),
  edouttime = col_datetime(format = ""),
  hospital_expire_flag = col_double()
)

# A tibble: 523,740 x 15
   subject_id  hadm_id admittime           dischtime           deathtime
        <dbl>    <dbl> <dttm>              <dttm>              <dttm>   
 1   14679932 21038362 2139-09-26 14:16:00 2139-09-28 11:30:00 NA       
 2   15585972 24941086 2123-10-07 23:56:00 2123-10-12 11:22:00 NA       
 3   11989120 21965160 2147-01-14 09:00:00 2147-01-17 14:25:00 NA       
 4   17817079 24709883 2165-12-27 17:33:00 2165-12-31 21:18:00 NA       
 5   15078341 23272159 2122-08-28 08:48:00 2122-08-30 12:32:00 NA       
 6   19124609 20517215 2169-03-14 12:44:00 2169-03-20 19:15:00 NA       
 7   17301855 29732723 2140-06-06 14:23:00 2140-06-08 14:25:00 NA       
 8   17991012 24298836 2181-07-10 20:28:00 2181-07-12 15:49:00 NA       
 9   16865435 23216961 2185-07-19 02:12:00 2185-07-21 11:50:00 NA       
10   13693648 21640725 2111-01-30 23:43:00 2111-02-02 13:03:00 NA       
   admission_type admission_location discharge_location insurance language
   <chr>          <chr>              <chr>              <chr>     <chr>   
 1 ELECTIVE       NA                 HOME               Other     ENGLISH 
 2 ELECTIVE       NA                 HOME               Other     ENGLISH 
 3 ELECTIVE       NA                 HOME               Other     ENGLISH 
 4 ELECTIVE       NA                 HOME               Other     ENGLISH 
 5 ELECTIVE       NA                 HOME               Other     ENGLISH 
 6 ELECTIVE       NA                 HOME               Other     ENGLISH 
 7 ELECTIVE       NA                 HOME               Other     ENGLISH 
 8 ELECTIVE       NA                 HOME               Other     ENGLISH 
 9 ELECTIVE       NA                 HOME               Other     ENGLISH 
10 ELECTIVE       NA                 HOME               Other     ENGLISH 
   marital_status ethnicity              edregtime edouttime
   <chr>          <chr>                  <dttm>    <dttm>   
 1 SINGLE         UNKNOWN                NA        NA       
 2 NA             WHITE                  NA        NA       
 3 NA             UNKNOWN                NA        NA       
 4 NA             OTHER                  NA        NA       
 5 NA             BLACK/AFRICAN AMERICAN NA        NA       
 6 NA             UNKNOWN                NA        NA       
 7 NA             WHITE                  NA        NA       
 8 NA             WHITE                  NA        NA       
 9 NA             WHITE                  NA        NA       
10 NA             WHITE                  NA        NA       
   hospital_expire_flag
                  <dbl>
 1                    0
 2                    0
 3                    0
 4                    0
 5                    0
 6                    0
 7                    0
 8                    0
 9                    0
10                    0
#  with 523,730 more rows
…
patients_tbl <- 
    read_csv(str_c(mimic_path, "/core/patients.csv.gz")) %>%
    print(width = Inf)

Parsed with column specification:
cols(
  subject_id = col_double(),
  gender = col_character(),
  anchor_age = col_double(),
  anchor_year = col_double(),
  anchor_year_group = col_character(),
  dod = col_date(format = "")
)

# A tibble: 382,278 x 6
   subject_id gender anchor_age anchor_year anchor_year_group dod   
        <dbl> <chr>       <dbl>       <dbl> <chr>             <date>
 1   10000048 F              23        2126 2008 - 2010       NA    
 2   10002723 F               0        2128 2017 - 2019       NA    
 3   10003939 M               0        2184 2008 - 2010       NA    
 4   10004222 M               0        2161 2014 - 2016       NA    
 5   10005325 F               0        2154 2011 - 2013       NA    
 6   10007338 F               0        2153 2017 - 2019       NA    
 7   10008101 M               0        2142 2008 - 2010       NA    
 8   10009872 F               0        2168 2014 - 2016       NA    
 9   10011333 F               0        2132 2014 - 2016       NA    
10   10011879 M               0        2158 2014 - 2016       NA    
#  with 382,268 more rows
…
system.time(
chartevents_tbl <- 
    read_csv(
        str_c(mimic_path, "/icu/chartevents_filtered_itemid.csv.gz"),
        col_types = cols_only(
            stay_id = col_double(), 
            itemid = col_double(), 
            charttime = col_datetime(), 
            valuenum = col_double()
        )
    ) %>%
    print(width = Inf)
)

# A tibble: 23,679,058 x 4
    stay_id charttime           itemid valuenum
      <dbl> <dttm>               <dbl>    <dbl>
 1 30600691 2165-04-24 05:28:00 220179    152  
 2 30600691 2165-04-24 05:28:00 220181    110  
 3 30600691 2165-04-24 05:30:00 220045     65  
 4 30600691 2165-04-24 05:30:00 220210     14  
 5 30600691 2165-04-24 05:38:00 223761     97.6
 6 30600691 2165-04-24 06:00:00 220045     56  
 7 30600691 2165-04-24 06:00:00 220179    126  
 8 30600691 2165-04-24 06:00:00 220181     88  
 9 30600691 2165-04-24 06:00:00 220210     14  
10 30600691 2165-04-24 06:09:00 220045     55  
#  with 23,679,048 more rows
…
In [26]:

icustays_tbl_1ststay <- 
    icustays_tbl %>%
    # first ICU stay of each unique `subject_id`
    group_by(subject_id) %>%
#     slice_min(intime) %>% # this function takes LONG
#     slice_max(n = 1, order_by = desc(intime)) %>% # this faster, but still lower than below
    arrange(intime, .by_group = TRUE) %>%
    slice_head(n = 1) %>%
    ungroup() %>%
    print(width = Inf)

# A tibble: 53,150 x 8
   subject_id  hadm_id  stay_id first_careunit                                  
        <dbl>    <dbl>    <dbl> <chr>                                           
 1   10000032 29079034 39553978 Medical Intensive Care Unit (MICU)              
 2   10000980 26913865 39765666 Medical Intensive Care Unit (MICU)              
 3   10001217 24597018 37067082 Surgical Intensive Care Unit (SICU)             
 4   10001725 25563031 31205490 Medical/Surgical Intensive Care Unit (MICU/SICU)
 5   10001884 26184834 37510196 Medical Intensive Care Unit (MICU)              
 6   10002013 23581541 39060235 Cardiac Vascular Intensive Care Unit (CVICU)    
 7   10002155 23822395 33685454 Coronary Care Unit (CCU)                        
 8   10002223 22494570 39638202 Trauma SICU (TSICU)                             
 9   10002348 22725460 32610785 Neuro Intermediate                              
10   10002428 28662225 33987268 Medical Intensive Care Unit (MICU)              
   last_careunit                                    intime             
   <chr>                                            <dttm>             
 1 Medical Intensive Care Unit (MICU)               2180-07-23 14:00:00
 2 Medical Intensive Care Unit (MICU)               2189-06-27 08:42:00
 3 Surgical Intensive Care Unit (SICU)              2157-11-20 19:18:02
 4 Medical/Surgical Intensive Care Unit (MICU/SICU) 2110-04-11 15:52:22
 5 Medical Intensive Care Unit (MICU)               2131-01-11 04:20:05
 6 Cardiac Vascular Intensive Care Unit (CVICU)     2160-05-18 10:00:53
 7 Coronary Care Unit (CCU)                         2129-08-04 12:45:00
 8 Trauma SICU (TSICU)                              2158-01-15 08:01:49
 9 Neuro Intermediate                               2112-11-30 23:24:00
10 Medical Intensive Care Unit (MICU)               2156-04-12 16:24:18
   outtime               los
   <dttm>              <dbl>
 1 2180-07-23 23:50:47 0.410
 2 2189-06-27 20:38:27 0.498
 3 2157-11-21 22:08:00 1.12 
 4 2110-04-12 23:59:56 1.34 
 5 2131-01-20 08:27:30 9.17 
 6 2160-05-19 17:33:33 1.31 
 7 2129-08-10 17:02:38 6.18 
 8 2158-01-16 15:19:24 1.30 
 9 2112-12-10 18:25:13 9.79 
10 2156-04-17 15:57:08 4.98 
#  with 53,140 more rows
…
    # do not need charttime and intime anymore
    select(-charttime, -intime, -outtime) %>%
    ungroup() %>%
    pivot_wider(names_from = itemid, values_from = valuenum) %>%
    # more informative column names
    rename(
        heart_rate = `220045`,
        bp_mean = `220181`,
        bp_syst = `220179`,
        temp_f = `223761`,
        resp_rate = `220210`
    ) %>%
    print(width = Inf)

# A tibble: 53,136 x 6
    stay_id heart_rate bp_syst bp_mean resp_rate temp_f
      <dbl>      <dbl>   <dbl>   <dbl>     <dbl>  <dbl>
 1 30000153        104     113      84        18   99.1
 2 30000646        100     107      75        28   98.8
 3 30001148         80     102      62         7   95.6
 4 30001336         65     110      65        30   98.5
 5 30001396         86     169     115        19   98.8
 6 30001446         82      75      61        22   98.1
 7 30001656         99     171     122        16   98.9
 8 30001947        105     121      90        14   97.9
 9 30002415         80     139     104        14   97.6
10 30002498         81     136     103        17   97.8
#  with 53,126 more rows
…
